…
``` r
z$tables
```

    ## [[1]]
    ## [1] NA
    ## 
    ## [[2]]
    ## [[2]]$uncoercible
    ## [1] "<table class=\"tfo-notebook-buttons\" align=\"left\">\n<td>\n    <a target=\"_blank\" href=\"https://www.tensorflow.org/tutorials/images/cnn\">\n    <img src=\"https://www.tensorflow.org/images/tf_logo_32px.png\">\n    View on TensorFlow.org</a>\n  </td>\n  <td>\n    <a target=\"_blank\" href=\"https://colab.research.google.com/github/tensorflow/docs/blob/master/site/en/tutorials/images/cnn.ipynb\">\n    <img src=\"https://www.tensorflow.org/images/colab_logo_32px.png\">\n    Run in Google Colab</a>\n  </td>\n  <td>\n    <a target=\"_blank\" href=\"https://github.com/tensorflow/docs/blob/master/site/en/tutorials/images/cnn.ipynb\">\n    <img src=\"https://www.tensorflow.org/images/GitHub-Mark-32px.png\">\n    View source on GitHub</a>\n  </td>\n  <td>\n    <a href=\"https://storage.googleapis.com/tensorflow_docs/docs/site/en/tutorials/images/cnn.ipynb\"><img src=\"https://www.tensorflow.org/images/download_logo_32px.png\">Download notebook</a>\n  </td>\n</table>\n"
    ## 
    ## 
    ## [[3]]
    ## [[3]]$`no-caption`
    ## # A tibble: 32 x 2
    ##    model             car  
    ##    <chr>             <lgl>
    ##  1 Mazda RX4         NA   
    ##  2 Mazda RX4 Wag     NA   
    ##  3 Datsun 710        NA   
    ##  4 Hornet 4 Drive    NA   
    ##  5 Hornet Sportabout NA   
    ##  6 Valiant           NA   
    ##  7 Duster 360        NA   
    ##  8 Merc 240D         NA   
    ##  9 Merc 230          NA   
    ## 10 Merc 280          NA   
    ## # … with 22 more rows
…
